# Fdb version 3
["pdflatex"] 1562096976 "persoonlijkverslag.tex" "output/persoonlijkverslag.pdf" "persoonlijkverslag" 1562096977
  "C:/Users/Sarah/AppData/Local/MiKTeX/2.9/miktex/data/le/pdftex/pdflatex.fmt" 1543183599 4162379 e744a5df43ab607c5e2baf59bb44b752 ""
  "C:/Users/Sarah/AppData/Local/MiKTeX/2.9/pdftex/config/pdftex.map" 1561632291 124233 1ab2d2fcf9bd947347da699bc7f18d06 ""
  "C:/Users/Sarah/AppData/Local/Programs/MiKTeX 2.9/fonts/enc/dvips/base/8r.enc" 1458477487 4993 80dc9bab7f31fb78a000ccfed0e27cab ""
  "C:/Users/Sarah/AppData/Local/Programs/MiKTeX 2.9/fonts/tfm/adobe/times/ptmb7t.tfm" 1136772254 2172 fd0c924230362ff848a33632ed45dc23 ""
  "C:/Users/Sarah/AppData/Local/Programs/MiKTeX 2.9/fonts/tfm/adobe/times/ptmb8r.tfm" 1136772254 4524 6bce29db5bc272ba5f332261583fee9c ""
  "C:/Users/Sarah/AppData/Local/Programs/MiKTeX 2.9/fonts/tfm/adobe/times/ptmr7t.tfm" 1136772254 2124 2601a75482e9426d33db523edf23570a ""
  "C:/Users/Sarah/AppData/Local/Programs/MiKTeX 2.9/fonts/tfm/adobe/times/ptmr8r.tfm" 1136772254 4408 25b74d011a4c66b7f212c0cc3c90061b ""
  "C:/Users/Sarah/AppData/Local/Programs/MiKTeX 2.9/fonts/tfm/adobe/times/ptmri7t.tfm" 1136772254 2288 f478fc8fed18759effb59f3dad7f3084 ""
  "C:/Users/Sarah/AppData/Local/Programs/MiKTeX 2.9/fonts/tfm/adobe/times/ptmri8r.tfm" 1136772254 4640 532ca3305aad10cc01d769f3f91f1029 ""
  "C:/Users/Sarah/AppData/Local/Programs/MiKTeX 2.9/fonts/tfm/public/cm/cmmi12.tfm" 1136768653 1524 4414a8315f39513458b80dfc63bff03a ""
  "C:/Users/Sarah/AppData/Local/Programs/MiKTeX 2.9/fonts/tfm/public/cm/cmmi6.tfm" 1136768653 1512 f21f83efb36853c0b70002322c1ab3ad ""
  "C:/Users/Sarah/AppData/Local/Programs/MiKTeX 2.9/fonts/tfm/public/cm/cmmi8.tfm" 1136768653 1520 eccf95517727cb11801f4f1aee3a21b4 ""
  "C:/Users/Sarah/AppData/Local/Programs/MiKTeX 2.9/fonts/tfm/public/cm/cmr12.tfm" 1136768653 1288 655e228510b4c2a1abe905c368440826 ""
  "C:/Users/Sarah/AppData/Local/Programs/MiKTeX 2.9/fonts/tfm/public/cm/cmr6.tfm" 1136768653 1300 b62933e007d01cfd073f79b963c01526 ""
  "C:/Users/Sarah/AppData/Local/Programs/MiKTeX 2.9/fonts/tfm/public/cm/cmr8.tfm" 1136768653 1292 21c1c5bfeaebccffdb478fd231a0997d ""
  "C:/Users/Sarah/AppData/Local/Programs/MiKTeX 2.9/fonts/tfm/public/cm/cmsy10.tfm" 1136768653 1124 6c73e740cf17375f03eec0ee63599741 ""
  "C:/Users/Sarah/AppData/Local/Programs/MiKTeX 2.9/fonts/tfm/public/cm/cmsy6.tfm" 1136768653 1116 933a60c408fc0a863a92debe84b2d294 ""
  "C:/Users/Sarah/AppData/Local/Programs/MiKTeX 2.9/fonts/tfm/public/cm/cmsy8.tfm" 1136768653 1120 8b7d695260f3cff42e636090a8002094 ""
  "C:/Users/Sarah/AppData/Local/Programs/MiKTeX 2.9/fonts/type1/public/amsfonts/cm/cmmi12.pfb" 1247596667 36741 0ee9e374ec3e30da87cdfb0ea3575226 ""
  "C:/Users/Sarah/AppData/Local/Programs/MiKTeX 2.9/fonts/type1/public/amsfonts/cm/cmmi8.pfb" 1247596666 35469 dcf3a5f2fc1862f5952e3ee5eb1d98c4 ""
  "C:/Users/Sarah/AppData/Local/Programs/MiKTeX 2.9/fonts/type1/public/amsfonts/cm/cmr12.pfb" 1247596667 32722 d7379af29a190c3f453aba36302ff5a9 ""
  "C:/Users/Sarah/AppData/Local/Programs/MiKTeX 2.9/fonts/type1/public/amsfonts/cm/cmr8.pfb" 1247596667 32726 39f0f9e62e84beb801509898a605dbd5 ""
  "C:/Users/Sarah/AppData/Local/Programs/MiKTeX 2.9/fonts/type1/public/amsfonts/cm/cmsy10.pfb" 1247596667 32569 5e5ddc8df908dea60932f3c484a54c0d ""
  "C:/Users/Sarah/AppData/Local/Programs/MiKTeX 2.9/fonts/type1/urw/times/utmb8a.pfb" 1136853348 44729 fea0975e20ec51c992338362f05f1146 ""
  "C:/Users/Sarah/AppData/Local/Programs/MiKTeX 2.9/fonts/type1/urw/times/utmr8a.pfb" 1136853348 46026 687528a208fbfc1f00832bb96cccebbb ""
  "C:/Users/Sarah/AppData/Local/Programs/MiKTeX 2.9/fonts/type1/urw/times/utmri8a.pfb" 1136853348 45458 504e2b06fa82109d168c7a0afb09e145 ""
  "C:/Users/Sarah/AppData/Local/Programs/MiKTeX 2.9/fonts/vf/adobe/times/ptmb7t.vf" 1136772254 1372 788387fea833ef5963f4c5bffe33eb89 ""
  "C:/Users/Sarah/AppData/Local/Programs/MiKTeX 2.9/fonts/vf/adobe/times/ptmr7t.vf" 1136772254 1380 0ea3a3370054be6da6acd929ec569f06 ""
  "C:/Users/Sarah/AppData/Local/Programs/MiKTeX 2.9/fonts/vf/adobe/times/ptmri7t.vf" 1136772254 1384 a9d8adaf491ce34e5fba99dc7bbe5f39 ""
  "C:/Users/Sarah/AppData/Local/Programs/MiKTeX 2.9/tex/context/base/supp-pdf.mkii" 1306918461 71592 fe353e1fbd982ffc647f3e98ff74da96 ""
  "C:/Users/Sarah/AppData/Local/Programs/MiKTeX 2.9/tex/generic/babel/babel.def" 1542096122 74097 730193adbb112990f38051a05f35ac11 ""
  "C:/Users/Sarah/AppData/Local/Programs/MiKTeX 2.9/tex/generic/babel/babel.sty" 1542096122 16329 4c42e43c85185e6cb0936a628ade375c ""
  "C:/Users/Sarah/AppData/Local/Programs/MiKTeX 2.9/tex/generic/babel/switch.def" 1542096122 13310 fcb0ad08386d450f0c718feed9fe2fee ""
  "C:/Users/Sarah/AppData/Local/Programs/MiKTeX 2.9/tex/generic/babel/txtbabel.def" 1542096122 7435 6c566fc19b3503b2b2da8bb4550f2b58 ""
  "C:/Users/Sarah/AppData/Local/Programs/MiKTeX 2.9/tex/generic/ifxetex/ifxetex.sty" 1284260789 1458 43ab4710dc82f3edeabecd0d099626b2 ""
  "C:/Users/Sarah/AppData/Local/Programs/MiKTeX 2.9/tex/generic/oberdiek/atbegshi.sty" 1536627733 24580 144573175d90c8e36676f97ae1d11ec2 ""
  "C:/Users/Sarah/AppData/Local/Programs/MiKTeX 2.9/tex/generic/oberdiek/etexcmds.sty" 1536627733 7612 729a8cc22a1ee0029997c7f74717ae05 ""
  "C:/Users/Sarah/AppData/Local/Programs/MiKTeX 2.9/tex/generic/oberdiek/ifluatex.sty" 1536627735 7324 2310d1247db0114eb4726807c8837a0e ""
  "C:/Users/Sarah/AppData/Local/Programs/MiKTeX 2.9/tex/generic/oberdiek/ifpdf.sty" 1536627735 1300 96620a7d94bc0ceb261d968770ce8315 ""
  "C:/Users/Sarah/AppData/Local/Programs/MiKTeX 2.9/tex/generic/oberdiek/infwarerr.sty" 1536627735 8253 473e0e41f9adadb1977e8631b8f72ea6 ""
  "C:/Users/Sarah/AppData/Local/Programs/MiKTeX 2.9/tex/generic/oberdiek/kvdefinekeys.sty" 1536627735 5152 b67a3a964ad9851e095110c854a1d461 ""
  "C:/Users/Sarah/AppData/Local/Programs/MiKTeX 2.9/tex/generic/oberdiek/kvsetkeys.sty" 1536627735 14040 ac8866aac45982ac84021584b0abb252 ""
  "C:/Users/Sarah/AppData/Local/Programs/MiKTeX 2.9/tex/generic/oberdiek/ltxcmds.sty" 1536627735 18425 5b3c0c59d76fac78978b5558e83c1f36 ""
  "C:/Users/Sarah/AppData/Local/Programs/MiKTeX 2.9/tex/generic/oberdiek/pdftexcmds.sty" 1536627736 20457 0d2e642faacbb41c9d72690f8cc529cd ""
  "C:/Users/Sarah/AppData/Local/Programs/MiKTeX 2.9/tex/latex/arabi/bblopts.cfg" 1139965200 902 c30e5c373bc58bde21f8f63a3091626f ""
  "C:/Users/Sarah/AppData/Local/Programs/MiKTeX 2.9/tex/latex/babel-dutch/dutch.ldf" 1400664765 7070 fd65992bc6263f49d82200991206b9d6 ""
  "C:/Users/Sarah/AppData/Local/Programs/MiKTeX 2.9/tex/latex/base/ifthen.sty" 1527456814 5161 c004ea5a189d4bdcf42e86754ad75a58 ""
  "C:/Users/Sarah/AppData/Local/Programs/MiKTeX 2.9/tex/latex/base/report.cls" 1527456800 22882 dde2f6d94552c7d0da323ba0661350b5 ""
  "C:/Users/Sarah/AppData/Local/Programs/MiKTeX 2.9/tex/latex/base/size12.clo" 1527456798 8305 4e2a90a380a17c0472dd191689c67cbc ""
  "C:/Users/Sarah/AppData/Local/Programs/MiKTeX 2.9/tex/latex/caption/caption.sty" 1538983564 68576 86bbc6bd5a409b3c353fccc1a815fa5b ""
  "C:/Users/Sarah/AppData/Local/Programs/MiKTeX 2.9/tex/latex/caption/caption3.sty" 1538983564 68510 943558eecf41da4e76fc614fd7f5deff ""
  "C:/Users/Sarah/AppData/Local/Programs/MiKTeX 2.9/tex/latex/eso-pic/eso-pic.sty" 1526200207 12362 c1669f88e13f8bb6243df144e456b477 ""
  "C:/Users/Sarah/AppData/Local/Programs/MiKTeX 2.9/tex/latex/etoolbox/etoolbox.sty" 1534668264 43865 f83cc2fa3767abdb988c7d2cd17c02bf ""
  "C:/Users/Sarah/AppData/Local/Programs/MiKTeX 2.9/tex/latex/float/float.sty" 1469023953 6916 16d2656a1984957e674b149555f1ea1d ""
  "C:/Users/Sarah/AppData/Local/Programs/MiKTeX 2.9/tex/latex/graphics-cfg/color.cfg" 1465894292 1213 620bba36b25224fa9b7e1ccb4ecb76fd ""
  "C:/Users/Sarah/AppData/Local/Programs/MiKTeX 2.9/tex/latex/graphics-cfg/graphics.cfg" 1465894292 1224 978390e9c2234eab29404bc21b268d1e ""
  "C:/Users/Sarah/AppData/Local/Programs/MiKTeX 2.9/tex/latex/graphics-def/pdftex.def" 1515451900 17334 520b9b85ad8a2a48eda3f643e27a5179 ""
  "C:/Users/Sarah/AppData/Local/Programs/MiKTeX 2.9/tex/latex/graphics/graphics.sty" 1523175985 15793 5a97061616e0c8b2aa79c6615ff769f4 ""
  "C:/Users/Sarah/AppData/Local/Programs/MiKTeX 2.9/tex/latex/graphics/graphicx.sty" 1523175985 9339 d0a305975932762117cd1f06a582f896 ""
  "C:/Users/Sarah/AppData/Local/Programs/MiKTeX 2.9/tex/latex/graphics/keyval.sty" 1523175985 2678 6404d0c7d28505fb38ce0d86c2e28ae7 ""
  "C:/Users/Sarah/AppData/Local/Programs/MiKTeX 2.9/tex/latex/graphics/lscape.sty" 1523175985 1815 456e1ddf48323a62f9e0fbc379de63a3 ""
  "C:/Users/Sarah/AppData/Local/Programs/MiKTeX 2.9/tex/latex/graphics/trig.sty" 1523175985 4094 cb9221976ed8a183afad65b59aa8629a ""
  "C:/Users/Sarah/AppData/Local/Programs/MiKTeX 2.9/tex/latex/makecell/makecell.sty" 1250677107 16155 2dd7dde1ec1c2a3d0c85bc3b273e04d8 ""
  "C:/Users/Sarah/AppData/Local/Programs/MiKTeX 2.9/tex/latex/oberdiek/epstopdf-base.sty" 1536627746 12095 5337833c991d80788a43d3ce26bd1c46 ""
  "C:/Users/Sarah/AppData/Local/Programs/MiKTeX 2.9/tex/latex/oberdiek/grfext.sty" 1536627747 7075 2fe3d848bba95f139de11ded085e74aa ""
  "C:/Users/Sarah/AppData/Local/Programs/MiKTeX 2.9/tex/latex/oberdiek/kvoptions.sty" 1536627749 22417 1d9df1eb66848aa31b18a593099cf45c ""
  "C:/Users/Sarah/AppData/Local/Programs/MiKTeX 2.9/tex/latex/oberdiek/pdflscape.sty" 1536627750 6688 c84de1eae6cda82865a6d3d09e339ec9 ""
  "C:/Users/Sarah/AppData/Local/Programs/MiKTeX 2.9/tex/latex/parskip/parskip.sty" 1536840462 4051 325586b5a40940baeb47386505e0e61d ""
  "C:/Users/Sarah/AppData/Local/Programs/MiKTeX 2.9/tex/latex/pdfpages/pdfpages.sty" 1509459221 52989 80e784f009ef46fd8220535bd14a7d82 ""
  "C:/Users/Sarah/AppData/Local/Programs/MiKTeX 2.9/tex/latex/pdfpages/pppdftex.def" 1509459221 6364 ca3f15bd79c5439d528d1a286b3405c1 ""
  "C:/Users/Sarah/AppData/Local/Programs/MiKTeX 2.9/tex/latex/psnfss/omsptm.fd" 1137114230 576 95c2c0baea9c719a4be29a3d4122498b ""
  "C:/Users/Sarah/AppData/Local/Programs/MiKTeX 2.9/tex/latex/psnfss/ot1ptm.fd" 1137114230 961 15056f4a61917ceed3a44e4ac11fcc52 ""
  "C:/Users/Sarah/AppData/Local/Programs/MiKTeX 2.9/tex/latex/psnfss/times.sty" 1156706054 857 6c716f26c5eadfb81029fcd6ce2d45e6 ""
  "C:/Users/Sarah/AppData/Local/Programs/MiKTeX 2.9/tex/latex/titlesec/titlesec.sty" 1458576864 37387 afa86533e532701faf233f3f592c61e0 ""
  "C:/Users/Sarah/AppData/Local/Programs/MiKTeX 2.9/tex/latex/tools/array.sty" 1525888914 13555 1c149904152e53130811b31763000c97 ""
  "C:/Users/Sarah/AppData/Local/Programs/MiKTeX 2.9/tex/latex/tools/calc.sty" 1525888914 10212 357072c1d20578a30d6387d8a22e72ab ""
  "C:/Users/Sarah/AppData/Local/Programs/MiKTeX 2.9/tex/latex/xcolor/xcolor.sty" 1463135581 57049 34128738f682d033422ca125f82e5d62 ""
  "output/persoonlijkverslag.aux" 1562096977 51 9687c274b8ecc265a6a6ad74c1f44fc8 ""
  "persoonlijkverslag.tex" 1562096975 12836 ab12f6eaff9680c17424c9d7c1cbcef4 ""
  (generated)
  "output/persoonlijkverslag.pdf"
  "output/persoonlijkverslag.log"
  "output/persoonlijkverslag.aux"
